[2017-03-05 02:51:30] main.ERROR: SQL error: Unknown column 'productID' in 'where clause' [] []
[2017-03-05 02:51:30] main.ERROR:  in query: SELECT * FROM product WHERE productID=2 [] []
[2017-03-05 18:49:26] main.ERROR: SQL error: Duplicate entry 'rtp05letq15sfs7qb0a0m5nvv4-2' for key 'unique_index' [] []
[2017-03-05 18:49:26] main.ERROR:  in query: INSERT INTO `cart_item` (`sessionID`,`productID`,`quantity`) VALUES ('rtp05letq15sfs7qb0a0m5nvv4', '2', 1) [] []
[2017-03-05 18:49:47] main.ERROR: SQL error: Duplicate entry 'rtp05letq15sfs7qb0a0m5nvv4-2' for key 'unique_index' [] []
[2017-03-05 18:49:47] main.ERROR:  in query: INSERT INTO `cart_item` (`sessionID`,`productID`,`quantity`) VALUES ('rtp05letq15sfs7qb0a0m5nvv4', '2', 1) [] []
[2017-03-05 18:49:48] main.ERROR: SQL error: Duplicate entry 'rtp05letq15sfs7qb0a0m5nvv4-2' for key 'unique_index' [] []
[2017-03-05 18:49:48] main.ERROR:  in query: INSERT INTO `cart_item` (`sessionID`,`productID`,`quantity`) VALUES ('rtp05letq15sfs7qb0a0m5nvv4', '2', 1) [] []
[2017-03-05 18:49:53] main.ERROR: SQL error: Duplicate entry 'rtp05letq15sfs7qb0a0m5nvv4-2' for key 'unique_index' [] []
[2017-03-05 18:49:53] main.ERROR:  in query: INSERT INTO `cart_item` (`sessionID`,`productID`,`quantity`) VALUES ('rtp05letq15sfs7qb0a0m5nvv4', '2', 1) [] []
[2017-03-05 18:49:53] main.ERROR: SQL error: Duplicate entry 'rtp05letq15sfs7qb0a0m5nvv4-2' for key 'unique_index' [] []
[2017-03-05 18:49:53] main.ERROR:  in query: INSERT INTO `cart_item` (`sessionID`,`productID`,`quantity`) VALUES ('rtp05letq15sfs7qb0a0m5nvv4', '2', 1) [] []
[2017-03-05 18:50:16] main.ERROR: SQL error: Duplicate entry 'rtp05letq15sfs7qb0a0m5nvv4-2' for key 'unique_index' [] []
[2017-03-05 18:50:16] main.ERROR:  in query: INSERT INTO `cart_item` (`sessionID`,`productID`,`quantity`) VALUES ('rtp05letq15sfs7qb0a0m5nvv4', '2', 1) [] []
[2017-03-06 00:01:12] main.ERROR: SQL error: Duplicate entry '8m0kvshn9d36o64uja9h5ett31-2' for key 'unique_index' [] []
[2017-03-06 00:01:12] main.ERROR:  in query: INSERT INTO `cart_item` (`sessionID`,`productID`,`quantity`) VALUES ('8m0kvshn9d36o64uja9h5ett31', '2', 1) [] []
[2017-03-06 00:01:25] main.ERROR: SQL error: Duplicate entry '8m0kvshn9d36o64uja9h5ett31-2' for key 'unique_index' [] []
[2017-03-06 00:01:25] main.ERROR:  in query: INSERT INTO `cart_item` (`sessionID`,`productID`,`quantity`) VALUES ('8m0kvshn9d36o64uja9h5ett31', '2', 1) [] []
[2017-03-06 00:01:25] main.ERROR: SQL error: Duplicate entry '8m0kvshn9d36o64uja9h5ett31-2' for key 'unique_index' [] []
[2017-03-06 00:01:25] main.ERROR:  in query: INSERT INTO `cart_item` (`sessionID`,`productID`,`quantity`) VALUES ('8m0kvshn9d36o64uja9h5ett31', '2', 1) [] []
[2017-03-06 00:02:25] main.ERROR: SQL error: Duplicate entry '8m0kvshn9d36o64uja9h5ett31-3' for key 'unique_index' [] []
[2017-03-06 00:02:25] main.ERROR:  in query: INSERT INTO `cart_item` (`sessionID`,`productID`,`quantity`) VALUES ('8m0kvshn9d36o64uja9h5ett31', '3', 1) [] []
[2017-03-06 06:12:48] main.ERROR: SQL error: Unknown column 'cartID' in 'field list' [] []
[2017-03-06 06:12:48] main.ERROR:  in query: REPLACE INTO `cart_item` (`cartID`,`quantity`) VALUES ('42', '1') [] []
[2017-03-06 06:13:53] main.ERROR: SQL error: Unknown column 'cartID' in 'field list' [] []
[2017-03-06 06:13:53] main.ERROR:  in query: REPLACE INTO `cart_item` (`cartID`,`quantity`) VALUES ('42', '1') [] []
[2017-03-06 06:14:41] main.ERROR: SQL error: Unknown column 'cartID' in 'field list' [] []
[2017-03-06 06:14:41] main.ERROR:  in query: REPLACE INTO `cart_item` (`cartID`,`quantity`) VALUES ('42', '1') [] []
[2017-03-06 06:15:49] main.ERROR: SQL error: Unknown column 'cartID' in 'field list' [] []
[2017-03-06 06:15:49] main.ERROR:  in query: REPLACE INTO `cart_item` (`cartID`,`quantity`) VALUES ('42', '1') [] []
[2017-03-06 06:29:51] main.ERROR: SQL error: Unknown column 'cartID' in 'field list' [] []
[2017-03-06 06:29:51] main.ERROR:  in query: REPLACE INTO `cart_item` (`cartID`,`quantity`) VALUES ('42', '1') [] []
[2017-03-06 06:29:54] main.ERROR: SQL error: Unknown column 'cartID' in 'field list' [] []
[2017-03-06 06:29:54] main.ERROR:  in query: REPLACE INTO `cart_item` (`cartID`,`quantity`) VALUES ('42', '1') [] []
[2017-03-06 06:30:45] main.ERROR: SQL error: Unknown column 'cartID' in 'field list' [] []
[2017-03-06 06:30:45] main.ERROR:  in query: REPLACE INTO `cart_item` (`cartID`,`quantity`) VALUES ('42', '1') [] []
[2017-03-06 06:33:13] main.ERROR: SQL error: Unknown column 'cartID' in 'where clause' [] []
[2017-03-06 06:33:13] main.ERROR:  in query: UPDATE `cart_item` SET `quantity`='1' WHERE cartID=42 [] []
[2017-03-06 06:33:40] main.ERROR: SQL error: Unknown column 'cartID' in 'where clause' [] []
[2017-03-06 06:33:40] main.ERROR:  in query: UPDATE `cart_item` SET `quantity`='1' WHERE cartID=42 [] []
[2017-03-06 06:34:16] main.ERROR: SQL error: Unknown column 'cartID' in 'where clause' [] []
[2017-03-06 06:34:16] main.ERROR:  in query: UPDATE `cart_item` SET `quantity`='1' WHERE cartID=42 [] []
[2017-03-06 06:34:46] main.ERROR: SQL error: Unknown column 'cartID' in 'where clause' [] []
[2017-03-06 06:34:46] main.ERROR:  in query: UPDATE `cart_item` SET `quantity`='2' WHERE cartID=42 [] []
[2017-03-06 07:27:46] main.ERROR: SQL error: You have an error in your SQL syntax; check the manual that corresponds to your MariaDB server version for the right syntax to use near 'cart_item.sessionID=0' at line 1 [] []
[2017-03-06 07:27:46] main.ERROR:  in query: SELECT product.price, cart_item.quantity FROM cart_item, product WHERE product.id=cart_item.productIDAND cart_item.sessionID=0 [] []
[2017-03-06 07:28:03] main.ERROR: SQL error: You have an error in your SQL syntax; check the manual that corresponds to your MariaDB server version for the right syntax to use near 'cart_item.sessionID='c0l4olajjegfqigerbffoiga66'' at line 1 [] []
[2017-03-06 07:28:03] main.ERROR:  in query: SELECT product.price, cart_item.quantity FROM cart_item, product WHERE product.id=cart_item.productIDAND cart_item.sessionID='c0l4olajjegfqigerbffoiga66' [] []
[2017-03-06 07:28:06] main.ERROR: SQL error: You have an error in your SQL syntax; check the manual that corresponds to your MariaDB server version for the right syntax to use near 'cart_item.sessionID='c0l4olajjegfqigerbffoiga66'' at line 1 [] []
[2017-03-06 07:28:06] main.ERROR:  in query: SELECT product.price, cart_item.quantity FROM cart_item, product WHERE product.id=cart_item.productIDAND cart_item.sessionID='c0l4olajjegfqigerbffoiga66' [] []
[2017-03-06 08:58:29] main.ERROR: SQL error: Table 'eshopdb.order_items' doesn't exist [] []
[2017-03-06 08:58:29] main.ERROR:  in query: INSERT INTO `order_items` (`orderheaderID`,`category_name`,`name`,`description`,`image_path`,`unit_price`,`quantity`) VALUES (1, 'Memory', 'Kingston HyperX FURY', 'Kingston HyperX Fury 16GB Kit (2x8GB) 1866MHz DDR3 CL10 DIMM - Blue', '/uploads/63d1e949c80e1a5d77badb9485b414a5.jpg', '119.00', '3') [] []
